"vertexlitGeneric"
{
	// Original shader: BaseTexture
	"$basetexture" "models/props_c17/door01a_skin4"
	"$surfaceprop" "wood"

	"VertexLitGeneric_DX9"
	{
	"$detail" "detail\plaster_detail_01"
	"$detailscale" "5.545"
	"$detailblendfactor" .7
	"$detailblendmode" 0
	}

}
