"VertexLitGeneric"
{
	"$basetexture" 						"Models/Buggy_elite/metalgascan"
	//"$bumpmap" 						"Models/Buggy/buggy001_normal"
	"$surfaceprop" 						"metal"
	
	"$envmap" 							"env_cubemap"
	"$envmaptint" 						"[ .6 .6 .6 ]"
	//"$normalmapalphaenvmapmask"			"1"
	"$envmapmask" 						"Models/Buggy_elite/metalgascan_mask"
	"$envmapcontrast" "1.3"

	"$nocull" 							"1"

}