"VertexLitGeneric"
{
	"$basetexture"	"Models/props_forest/fence_trail"
	"$surfaceprop"	"Wood"
	">=DX90"
	{
	"$detail" "detail/wood_detail_01"
	"$detailscale" "3.5"
	"$detailblendfactor" 1
	"$detailblendmode" 0
	}
}