"UnLitGeneric"
{
	// Original shader: BaseTimesLightmap
	"$basetexture" "models/props_combine/stasisfield_beam"
	"$additive" "1"
	"$model" "1"
	"ldr?$gammaColorRead" "1"
	"ldr?$linearWrite" "1"

	"Proxies"
	{
		"TextureScroll"
		{
			"texturescrollvar" "$basetexturetransform"
			"texturescrollrate" .4
			"texturescrollangle" 45
		}
	}
}
