// envmaptint_fix
"LightmappedGeneric"
{
	"$basetexture" "concrete\concretefloor028d"
	"$surfaceprop" "concrete"
	"%keywords" "c17downtown"
	"$envmap" "env_cubemap"
	"$bumpmap" "concrete\concretefloor028d_normal"
	"$normalmapalphaenvmapmask" 1
	"$envmapsaturation" 1
	"$envmapcontrast" 1
	"$envmaptint" "[ .45 .45 .45 ]"
	"hdr?$envmaptint" "[.12 .12 .12]"

	"LightmappedGeneric_DX9"
	{
	"$detail" "detail\noise_detail_01"
	"$detailscale" "7.345"
	"$detailblendfactor" .6
	"$detailblendmode" 0
	}

	"LightmappedGeneric_DX8"
	{
		"$envmaptint" "[ .35 .35 .35 ]"
	}
}

