"VertexLitGeneric"
{
	// Original shader: VertexLitMaskedEnvMappedTexture
	"$basetexture" "models/Citizen_17/torso"
	"$envmapmask" "models/Citizen_17/torsomask"
	"$envmap" "models/cremator/cremsuitenvmap"
	//"$envmapsphere" 1
}
