"LightmappedGeneric"
{
	"$basetexture" "Building_Template/Building_Template002g"
	"$surfaceprop"  "concrete"
	"LightmappedGeneric_DX9"
	{
	"$detail" "detail\plaster_detail_01"
	"$detailscale" "8.283"
	"$detailblendfactor" 1.2
	"$detailblendmode" "0"
	}
}
