"LightmappedGeneric"
{
	// Original shader: BaseTimesLightmap
	"$basetexture" "Brick/brickwall046a"
	"$surfaceprop" "brick"
	"LightmappedGeneric_DX9"
	{
		"$detail" "detail\noise_detail_01"
		"$detailscale" "7.740"
		"$detailblendfactor" .8
		"$detailblendmode" 0
	}
	"%keywords" "c17sewers"
}
