"LightmappedGeneric"
{
	"$basetexture" "Brick/brickwall031b"
	"$surfaceprop" "brick"
	"LightmappedGeneric_DX9"
	{
		"$detail" "detail\noise_detail_01"
		"$detailscale" "7.740"
		"$detailblendfactor" .8
		"$detailblendmode" 0
	}
	"%keywords" "c17downtown"
	"$envmap" "env_cubemap"
	"$basealphaenvmapmask" 1
	"$envmapcontrast" 1
	"$envmapsaturation" 1
	"$envmaptint" "[ .6 .6 .6]"
}
