"LightmappedGeneric"
{
	// Original shader: BaseTimesLightmapPlusMaskedSphericalEnvMap
	"$basetexture" "halflife/lab1_panel1d"
	"$surfaceprop" "metal"

	"LightmappedGeneric_DX8"
	{
		"$envmap" "environment maps/envmap001a"
		"$envmapmask" "halflife/lab1_panel1dr"
		"$envmapsphere" 1
	}
}
