"LightmappedGeneric"
{
	// Original shader: BaseTimesLightmap
	"$basetexture" "Metal/metalwall030a"
	"$surfaceprop"  "metal"
	"LightmappedGeneric_DX9"
	{
		"$detail" "detail\metal_detail_01"
		"$detailscale" "4.283"
		"$detailblendfactor" .8
		"$detailblendmode" "0"
	}

}
