"LightmappedGeneric"
{
	"$basetexture" "Metal/metalwall021c"
	"%keywords" "c17industrial"
	"$surfaceprop"  "metal"
	"LightmappedGeneric_DX9"
	{
		"$detail" "detail\metal_detail_01"
		"$detailscale" "4.283"
		"$detailblendfactor" .8
		"$detailblendmode" "0"
	}

	"$bumpmap" "Metal/metalwall018c_normal"
}
