// envmaptint_fix
"LightmappedGeneric"
{
	"$basetexture" "Metal/metalwall072b"
	"$surfaceprop"  "metal"
	"LightmappedGeneric_DX9"
	{
		"$detail" "detail\metal_detail_01"
		"$detailscale" "4.283"
		"$detailblendfactor" .8
		"$detailblendmode" "0"
	}

	"%keywords" "combine"
	"$bumpmap" "Metal/metalwall072b_normal"
	//"$nodiffusebumplighting" 1
	"$envmaptint" "[ .56 .56 .75 ]"
	"hdr?$envmaptint" "[ .09 .1 .12]"
	"$envmap" "env_cubemap"
	"$normalmapalphaenvmapmask" 1
	"$envmapcontrast" 1
	"$envmapsaturation" 1
	"$parallaxmap" "Metal/metalwall072b_height"
	"$parallaxmapscale" ".05"
}

