"sky"
{
	"$hdrcompressedTexture" "skybox/sky_day03_01_hdrft"
	"$nofog" "1"
	"$ignorez" "1"
	"$basetexture" "skybox/sky_day03_01ft"

	"hdr?$basetexturetransform" "center 0 0 scale 1 2 rotate 0 translate 0 0"
	
}
