"UnlitGeneric"
//"Modulate"
{
	"$translucent" "1"
	"$color" ".2"
	"$additive" "1"
//	"$mod2x" "1"
//	"$znearer" 1
	"$basetexture" "effects/tp_eyefx/2tpeyefx_"
//	"$basetexture" "effects/tp_eyefx/tp_eyefx-I"
	"$gammaColorRead" "1"
	"$linearWrite" "1"
	"Proxies"
	{
		"AnimatedTexture"
		{
			"animatedtexturevar" "$basetexture"
			"animatedtextureframenumvar" "$frame"
			"animatedtextureframerate" 23
		}
	}
}
