"VertexLitGeneric"
{
	"$basetexture" "models/Weapons/v_pipe/mattpipe_sheet"
	"$bumpmap" "models/Weapons/v_pipe/mattpipe_sheet_normal"
	"$normalmapalphaenvmapmask" 1
	"$envmap"		"env_cubemap"
	"$envmaptint"	"[ 0.4 0.4 0.4]"
	"$detail"		"models/Weapons/v_pipe/Detail_Metal"
	"$detailscale" 	"3"
	
}
