"UnlitGeneric"
{
	"$baseTexture" "vgui/hud/xbox_reticle"
	"$translucent" "1"
	//"$alpha" 1
	"$vertexalpha" 1
	"$ignorez" 1
	//"$no_fullbright" "1"	
	"$vertexcolor" 1
	//"$additive" 1
	"$gammaColorRead" "1"
	"$linearWrite" "1"
}