// Gauss

WeaponData
{
	// Weapon data is loaded by both the Game and Client DLLs.
	"printname"		"#SMOD_Gauss"
	"viewmodel"		"models/weapons/v_gauss.mdl"
	"playermodel"		"models/weapons/w_gauss.mdl"
	"anim_prefix"		"gauss"
	"bucket"			"special"
	"bucket_position"	"1"

	"clip_size"		"-1"
	"default_clip"		"20"
	"primary_ammo"		"Uranium"
	"secondary_ammo"	"None"

	"weight"		"20"
	"item_flags"		"0"
	"ITEM_FLAG_NOAUTOSWITCHEMPTY"	"1"

	// Sounds for the weapon. There is a max of 16 sounds per category (i.e. max 16 "single_shot" sounds)
	SoundData
	{
	}

	// Weapon Sprite data is loaded by the Client DLL.
	TextureData
	{
		"weapon"
		{
				"font"		"SMODWeaponIcons"
				"character"	"t"
		}
		"weapon_s"
		{	
				"font"		"SMODWeaponIconsSelected"
				"character"	"t"
		}
		"weapon_small"
		{
				"font"		"SMODWeaponIconsSmall"
				"character"	"t"
		}
		"ammo"
		{
			"file"		"sprites/640hud7"
			"x"			"0"
			"y"			"96"
			"width"		"24"
			"height"	"24"
		}
		"crosshair"
		{
				"font"		"Crosshairs"
				"character"	"Q"
		}
		"autoaim"
		{
			"file"		"sprites/crosshairs"
			"x"			"0"
			"y"			"48"
			"width"		"24"
			"height"	"24"
		}
	}
}