// Pistol

WeaponData
{
	// Weapon data is loaded by both the Game and Client DLLs.
	"printname"	"#SMOD_DualPistols"
	"viewmodel"			"models/weapons/v_pistol_akimbo.mdl"
	"playermodel"		"models/weapons/w_pistol.mdl"
	"anim_prefix"		"pistol"
	"bucket"			"disabled"	//akimbo ver is hidden
	"bucket_position"	"0"
	"bucket_360"			"0"
	"bucket_position_360"	"0"

	"clip_size"			"36"
	"primary_ammo"		"Pistol"
	"secondary_ammo"	"None"

	"item_flags"		"0"

	// Sounds for the weapon. There is a max of 16 sounds per category (i.e. max 16 "single_shot" sounds)
	SoundData
	{

		"reload"		"Weapon_Pistol.Reload"
		"reload_npc"	"Weapon_Pistol.NPC_Reload"
		"empty"			"Weapon_Pistol.Empty"
		"single_shot"	"Weapon_Pistol.Single"
		"single_shot_npc"	"Weapon_Pistol.Single"
		"special1"		"Weapon_Pistol.Special1"
		"special2"		"Weapon_Pistol.Special2"
		"burst"			"Weapon_Pistol.Burst"
	}

	// Weapon Sprite data is loaded by the Client DLL.
	TextureData
	{
		"weapon"
		{
				"font"		"SMODWeaponIcons"
				"character"	"b"
		}
		"weapon_s"
		{	
				"font"		"SMODWeaponIconsSelected"
				"character"	"b"
		}
		"weapon_small"
		{
				"font"		"SMODWeaponIconsSmall"
				"character"	"b"
		}
		"ammo"
		{
				"font"		"WeaponIconsSmall"
				"character"	"p"
		}
		"crosshair"
		{
				"font"		"Crosshairs"
				"character"	"Q"
		}
		"autoaim"
		{
				"file"		"sprites/crosshairs"
				"x"			"0"
				"y"			"48"
				"width"		"24"
				"height"	"24"
		}
	}
}