"VertexLitGeneric"
{
	"$baseTexture" "models/Zombie_Classic/Zombie_Classic_sheet"
	"$bumpmap" "Models/zombie_classic/zombie_classic_sheet_normal"
	"$model" "1"
	"$phong" "1"
	"$phongboost" "5"
//	"$halflambert" "1"
//	"$phongexponenttexture" "Models/zombie_classic/zombie_classic_phong"
//	"$phongalbedotint" "1"										
	"$phongfresnelranges"	"[0.1 .5  1]"
	"$phongexponent" 30
	
//

//rimlight disabled for now, sunlight areas wreaking havoc
	//rimlight parameters
	//"$rimlight" "1"
	//"$rimlightexponent" "24"
	//"$rimlightboost" "1"

	"<DX90_20b"
	{
		"$bumpmap" "Models/zombie_classic/zombie_classic_sheet_normal_old"
		"$envmap" "env_cubemap"
		"$envmapcontrast" 1
		"$normalmapalphaenvmapmask" 1
	}

	"<DX90"
	{
		"dummy" 0
	}
}
