"vertexlitgeneric"
{
	"$baseTexture" "models\weapons\w_mp5k\p_mp5k_101206"
//	"$bumpmap" "models\weapons\w_mp5k\p_mp5k_normal"

	"$envmap" "env_cubemap"
	"$baseAlphaEnvmapMask" 1
	"$envmapcontrast" 1.25

//	"$envmaptint" "[0.4 0.4 0.4]"
//	"$envmapcontrast" 1.2
//	"$envmapsaturation" 0
}
