"VertexLitGeneric"
{
	"$baseTexture" "models\weapons\psp/psp_disable_w"
	"$model" "1"
	"$selfillum" "1"
	"$envmap" "env_cubemap"
	"$envmapmask" "models\weapons\psp\psp_em"
	"$envmaptint" "[ 0.05 0.05 0.05 ]"			
}
