"UnlitGeneric"
//"Modulate"
{
	"$baseTexture" "Models/Effects/comball_sphere"
//	"$nocull" "1"	
	"$additive" "1"
	"$translucent" "1"
	"$model" "1"
	"ldr?$gammaColorRead" "1"
	"ldr?$linearWrite" "1"
	
	"Proxies"
	{

		"TextureScroll"
		{
			"texturescrollvar" "$basetexturetransform"
			"texturescrollrate" 1
			"texturescrollangle" -80
		}


	}

}

