"VertexLitGeneric"
{
	"$basetexture" "models\props_vehicles\generatortrailer01"
	"$surfaceprop" "metal"
	"$envmap" "env_cubemap"
	"$basealphaenvmapmask" 1
	"$envmaptint" "[0.5 0.5 0.5]"
  	"hdr?$envmaptint" "[.125 .125 .125]"
}