"VertexLitGeneric"
{
	"$basetexture" "models/map1_boards/woodfloor008a"
	">=DX90"
	{
	"$detail" "detail\noise_detail_01"
	"$detailscale" "11.740"
	"$detailblendfactor" .7
	"$detailblendmode" 0
	}
	"$color2" "[.75 .75 .75]"
	
}
