"vertexlitgeneric"
{
	"$bumpmap" "models/weapons/v_grenade/rim_normal"
	"$baseTexture" "Models/Weapons/V_grenade/rim"

// -- From here down is new stuff which will only be applied if $phong is set to 1 --
	"$phong" "1"
	"$phongexponent" "135"
	"$phongboost"	"11"
	"$phongfresnelranges"	"[.3 0.4 2]"

	"<DX90_20b"
	{
		"$envmap" "env_cubemap"
		"$envmapcontrast" 1
		"$normalmapalphaenvmapmask" 1
	}
}
