"UnlitGeneric"
//"Modulate"
{
	// Original shader: BaseTimesVertexColorAlphaBlend
	"$basetexture" "effects/splashwake1"
	"$vertexcolor" "1"
	"$vertexalpha" "1"
//	"$mod2x" "1"
	"$translucent" "1"
	"ldr?$gammaColorRead" "1"
	"ldr?$linearWrite" "1"
}
	