"VertexLitGeneric"
{
	"$baseTexture"	"models/combine_apc/apc01blue"
	"$surfaceprop" "metal"
	"$envmap" "env_cubemap"
	"$envmapcontrast" 1
	"$envmapsaturation" 1
	"$envmaptint" "[ .75 .9 1]"
	"$basealphaenvmapmask" 1	
}
