// envmaptint_fix
"LightmappedGeneric"
{
	"$basetexture" "Stone/stonefloor006e"
	"$surfaceprop" "concrete"
	"%keywords" "c17downtown,wasteland"
	"$envmap" "env_cubemap"
	"$bumpmap" "stone/stonefloor006b_normal"
	"$envmapsaturation" 1
	"$envmapcontrast" 1
	"$envmaptint" "[ .6 .6 .6 ]"
	"hdr?$envmaptint" "[.15 .15 .15]"
	"$normalmapalphaenvmapmask" 1

	"LightmappedGeneric_DX9"
	{
	"$detail" "detail\noise_detail_01"
	"$detailscale" "7.345"
	"$detailblendfactor" .8
	"$detailblendmode" 0
	}

	"LightmappedGeneric_DX8"
	{
		"$envmaptint" "[ .5 .5 .5 ]"
	}
}
