// envmaptint_fix
"LightmappedGeneric"
{
	"$basetexture" "Stone/stonewall051b"
	"$surfaceprop" "concrete"
	"%keywords" "c17downtown"
	"$bumpmap" "stone/stonewall051a_normal"
	"$normalmapalphaenvmapmask" 1
	"$envmapcontrast" 1
	"$envmapsaturation" 1
	"$envmaptint" "[ .56 .56 .56 ]"
	"hdr?$envmaptint" "[ .1 .1 .1]"
	"$envmap" "env_cubemap"

	"LightmappedGeneric_DX9"
	{
	"$detail" "detail\noise_detail_01"
	"$detailscale" "7.345"
	"$detailblendfactor" .8
	"$detailblendmode" 0
	}

	"LightmappedGeneric_DX8"
	{
		"$nodiffusebumplighting" 1
	}
}
