"VertexLitGeneric"
{
	"$basetexture" "Models/props_wasteland/fence_sheet02"
	"$surfaceprop" "metal"
	"$envmap" "env_cubemap"
	"$basealphaenvmapmask" 1

	"VertexLitGeneric_DX9"
	{
	"$detail" "detail\metal_detail_01"
	"$detailscale" "12.283"
	"$detailblendfactor" .8
	"$detailblendmode" "0"
	}
}
