"VertexLitGeneric"
{
	"$basetexture" 	"Models/props_wasteland/lighthouse_brace"
	"$surfaceprop" 	"metal"
	"$alphatest"	1
	//"$alpha" 		1
	//"$translucent"	1
	//"$envmap"		"env_cubemap"
	//"envmapmask"	"Models/props_wastland/lighthouse_stairs_spec"	

}
